INDEX VERSION 1.130+C:\Users\prana\workspace\M4 - SPRINGBOOT\springbootworkspace\.metadata\.plugins\org.eclipse.jdt.core
1549918661.index
1086314759.index
2066830214.index
4135958314.index
3348520720.index
3222023081.index
3837444449.index
741346690.index
3126038598.index
843608156.index
103378668.index
674573568.index
508734811.index
388314802.index
3644761064.index
3035029838.index
4047389918.index
466899069.index
1455707360.index
895354549.index
4176310265.index
4259073463.index
1946725198.index
2420695130.index
4054839543.index
542153213.index
1381802620.index
2038152530.index
3632951415.index
3493222981.index
3196984054.index
623981115.index
2890708629.index
236858164.index
3182186393.index
344188024.index
3762445320.index
552188144.index
2486416081.index
2954742047.index
565734232.index
741741709.index
755407138.index
3528879570.index
921855466.index
4138326577.index
3479910888.index
293786941.index
3040837599.index
3797271146.index
3711369478.index
715102428.index
1014236694.index
414622797.index
3429491459.index
3367700390.index
1961815414.index
1573232577.index
2573568113.index
2429932876.index
1948686058.index
1956904976.index
2013326799.index
1697255050.index
1642595074.index
457466652.index
2885606711.index
1157794395.index
411227453.index
2913624766.index
2324309575.index
2704492576.index
4268633140.index
2403545770.index
633104639.index
4159644065.index
2205283528.index
725973457.index
2507423472.index
