<?xml version="1.0" encoding="UTF-8"?>
<session version="1.0">
<refactoring comment="Rename type &apos;com.ts.ProductController&apos; to &apos;StudentController&apos;&#x0D;&#x0A;- Original project: &apos;Student&apos;&#x0D;&#x0A;- Original element: &apos;com.ts.ProductController&apos;&#x0D;&#x0A;- Renamed element: &apos;com.ts.StudentController&apos;&#x0D;&#x0A;- Update references to refactored element&#x0D;&#x0A;- Update textual occurrences in comments and strings" description="Rename type &apos;ProductController&apos;" flags="589830" id="org.eclipse.jdt.ui.rename.type" input="/src\/main\/java&lt;com.ts{ProductController.java[ProductController" matchStrategy="1" name="StudentController" qualified="false" references="true" similarDeclarations="false" stamp="1702289276327" textual="false" version="1.0"/>
</session>